When does winter actually start and end? – Lily Dunk
…
solstice_data2 <- dplyr::bind_rows(solstice_data) |>
  # Keep only the date column
  dplyr::select(date) |>
  # Convert character to date and set year
  dplyr::mutate(
    solstice_date = lubridate::ymd(date),
    year = lubridate::year(solstice_date),
    .keep = "unused"
  )

print(solstice_data2)

# A tibble: 156 × 2
   solstice_date  year
   <date>        <dbl>
 1 1871-12-21     1871
 2 1872-12-21     1872
 3 1873-12-21     1873
 4 1874-12-21     1874
 5 1875-12-21     1875
 6 1876-12-21     1876
 7 1877-12-21     1877
 8 1878-12-21     1878
 9 1879-12-21     1879
10 1880-12-21     1880
# ℹ 146 more rows
…
weather2 |>
  dplyr::select(
    date,
    solstice_date,
    last_solstice_date,
    solstice_days
  ) |>
  print()

# A tibble: 56,048 × 4
   date       solstice_date last_solstice_date solstice_days
   <date>     <date>        <date>                     <dbl>
 1 1872-10-01 1872-12-21    1871-12-21                   -81
 2 1872-10-02 1872-12-21    1871-12-21                   -80
 3 1872-10-03 1872-12-21    1871-12-21                   -79
 4 1872-10-04 1872-12-21    1871-12-21                   -78
 5 1872-10-05 1872-12-21    1871-12-21                   -77
 6 1872-10-06 1872-12-21    1871-12-21                   -76
 7 1872-10-07 1872-12-21    1871-12-21                   -75
 8 1872-10-08 1872-12-21    1871-12-21                   -74
 9 1872-10-09 1872-12-21    1871-12-21                   -73
10 1872-10-10 1872-12-21    1871-12-21                   -72
# ℹ 56,038 more rows
…
REML score: 211965.6     

# Get predicted high temperatures
predicted_temps <- predict(gam_fit, new_data = weather2)

weather3 <- weather2 |>
  dplyr::bind_cols(predicted_temps) |>
  dplyr::rename(predicted_high_temp = .pred)

weather_pred <- weather3 |>
  dplyr::distinct(solstice_days, predicted_high_temp)
weather_pred

# A tibble: 367 × 2
   solstice_days predicted_high_temp
           <dbl>               <dbl>
 1           -81                65.7
 2           -80                65.2
 3           -79                64.8
 4           -78                64.3
 5           -77                63.9
 6           -76                63.4
 7           -75                63.0
 8           -74                62.5
 9           -73                62.0
10           -72                61.6
# ℹ 357 more rows
…
